"ID_BUILD","ID_SOURCE"
"1","w67036986"
"5","w67028287"
"6","w67028303"
"8","w67028578"
"9","w67028564"
"10","w67028290"
"11","w67028288"
"12","w67356483"
"13","w67057842"
"16","w69329956"
"17","w67028284"
"19","w69329981"
"20","w69329954"
"21","w69329918"
"22","w69329958"
"25","w67028308"
"26","w67027589"
"27","w69329971"
"32","w67028305"
"34","w67356415"
"35","w69329939"
"37","w67028566"
"40","w56185523"
"41","r1086124"
"43","r1086122"
"44","r2778854"
